Bayesian Logistic Regression using brms, Part 1 | James R. Rae
…
library(brms); library(tidyverse); library(tidybayes); library(ggplot2); library(LaplacesDemon)

## Warning: package 'LaplacesDemon' was built under R version 3.5.2

As you already know, we’re going to need the brms package to fit our logistic regression models. Critically, brms relies on Stan (Stan Development Team, 2017), which is a great tool for fitting Bayesian analyses. For details on installing Stan, see here. Once you’ve done these steps you’ll need to have the brms library loaded. Another option is to use the free RStudio cloud service—they already have Stan installed. For details, see here.

Now, let’s read the data into R:

lrsmall <- read_csv(url("https://raw.githubusercontent.com/jamesrrae/sexuality-iat-website-data/master/lrsmall.csv"))

Now, let’s get a sense of the data:

print(lrsmall)

## # A tibble: 5,000 x 2
##    Allowed     D.z
##      <int>   <dbl>
##  1      NA   1.48 
##  2       1   0.976
##  3      NA  NA    
##  4       1   0.568
##  5      NA  NA    
##  6       1   1.08 
##  7       1  -1.68 
##  8       1  -0.507
##  9       1   0.487
## 10      NA   0.174
## # ... with 4,990 more rows
…
